Data Processing
…
##I then prompted ChatGPT3.5 to provide me with code to display the location of these rows so that I may check if they all matched.
if (nrow(rows_with_missing_in_all) > 0) {
  print("Rows with missing values in aforementioned variables")
  print(rows_with_missing_in_all)
} else {
  print("No rows with missing values in aforementioned variables")
}

[1] "Rows with missing values in aforementioned variables"
# A tibble: 27,024 × 7
   P_U13HPV P_U13HPV3 P_UTDHPV P_UTDHPV_15 P_UTDHPV_15INT P_UTDHPV2 P_UTDHPV3
   <fct>    <fct>     <fct>    <fct>       <fct>          <fct>     <fct>    
 1 <NA>     <NA>      <NA>     <NA>        <NA>           <NA>      <NA>     
 2 <NA>     <NA>      <NA>     <NA>        <NA>           <NA>      <NA>     
 3 <NA>     <NA>      <NA>     <NA>        <NA>           <NA>      <NA>     
 4 <NA>     <NA>      <NA>     <NA>        <NA>           <NA>      <NA>     
 5 <NA>     <NA>      <NA>     <NA>        <NA>           <NA>      <NA>     
 6 <NA>     <NA>      <NA>     <NA>        <NA>           <NA>      <NA>     
 7 <NA>     <NA>      <NA>     <NA>        <NA>           <NA>      <NA>     
 8 <NA>     <NA>      <NA>     <NA>        <NA>           <NA>      <NA>     
 9 <NA>     <NA>      <NA>     <NA>        <NA>           <NA>      <NA>     
10 <NA>     <NA>      <NA>     <NA>        <NA>           <NA>      <NA>     
# ℹ 27,014 more rows
…
