Data Analysis and Modeling of Teen Vaccination Surveys
…
It seems that mtry is maximized between 100 and 150 and min_n is maximized between 1 and 5. We can use a grid search to tune within a range to determine which is the ideal parameter value.

# grid search tuning
rf_tune_grid <- grid_regular( #define a grid with a range for mtry and min_n
  mtry(range = c(100, 150)),
  min_n(range = c(1, 5)),
  levels = 6
)

rf_tune_grid # display the grid

# A tibble: 30 × 2
    mtry min_n
   <int> <int>
 1   100     1
 2   110     1
 3   120     1
 4   130     1
 5   140     1
 6   150     1
 7   100     2
 8   110     2
 9   120     2
10   130     2
# ℹ 20 more rows
…
