Data Analysis and Modelling of Teen Vaccination Surveys
…
# Create workflow
lasso_wf <- workflow() %>%
  add_recipe(lasso_rec)

# Fit the model using training data
lasso_fit <- lasso_wf %>%
  add_model(lasso_spec) %>%
  fit(data = train_data)

# Extract and tidy model parameters
lasso_fit %>%
  extract_fit_parsnip() %>%
  tidy()

# A tibble: 96 × 3
   term                       estimate penalty
   <chr>                         <dbl>   <dbl>
 1 (Intercept)                    1.32    0.05
 2 AGE                            0       0.05
 3 SEX_FEMALE                     0       0.05
 4 STATE_DELAWARE                 0       0.05
 5 STATE_DISTRICT.OF.COLUMBIA     0       0.05
 6 STATE_FLORIDA                  0       0.05
 7 STATE_GEORGIA                  0       0.05
 8 STATE_HAWAII                   0       0.05
 9 STATE_IDAHO                    0       0.05
10 STATE_ILLINOIS                 0       0.05
# ℹ 86 more rows
…
# Create workflow
lasso_wf <- workflow() %>%
  add_recipe(lasso_rec)

# Fit the model using training data
lasso_fit <- lasso_wf %>%
  add_model(lasso_spec) %>%
  fit(data = train_data)

# Extract and tidy model parameters
lasso_fit %>%
  extract_fit_parsnip() %>%
  tidy()

# A tibble: 96 × 3
   term                        estimate penalty
   <chr>                          <dbl>   <dbl>
 1 (Intercept)                 0.0179     0.005
 2 AGE                         0.0750     0.005
 3 SEX_FEMALE                  0.119      0.005
 4 STATE_DELAWARE              0.0680     0.005
 5 STATE_DISTRICT.OF.COLUMBIA  0.0589     0.005
 6 STATE_FLORIDA              -0.134      0.005
 7 STATE_GEORGIA              -0.224      0.005
 8 STATE_HAWAII                0.268      0.005
 9 STATE_IDAHO                 0          0.005
10 STATE_ILLINOIS              0.000216   0.005
# ℹ 86 more rows
…
